Homework 5
…
Define a grid of \(100\) points from \(-10\) to \(10\) in both \(x_1\) and \(x_2\) using the expand.grid(). Save it as a tibble called df_test.

grid <- expand.grid(
  x1 = seq(-10, 10, length.out = 100),
  x2 = seq(-10, 10, length.out = 100)
)

df_test <- as_tibble(grid)
df_test

# A tibble: 10,000 × 2
       x1    x2
    <dbl> <dbl>
 1 -10      -10
 2  -9.80   -10
 3  -9.60   -10
 4  -9.39   -10
 5  -9.19   -10
 6  -8.99   -10
 7  -8.79   -10
 8  -8.59   -10
 9  -8.38   -10
10  -8.18   -10
# ℹ 9,990 more rows
…
